1ad6bd4ac403c77ee81c503c6517884bbb80374d39a8b4a680272542652656536293d72420356c7a4d5b7d402161be18c6833249d53f07050617e6cc6d254978 bag-info.txt
418dcfbe17d5f4b454b18630be795462cf7da4ceb6313afa49451aa2568e41f7ca3d34cf0280c7d056dc5681a70c37586aa1755620520b9198eede905ba2d0f6 bagit.txt
8bfe1b4c0c969889a5763b44e187fd5bd4d4827943d2adb2806dda96c927a3a202b95e067478830100cc4466fcc0ca1d022bb53ee6540ba001fa13112496a2c8 manifest-sha256.txt
dc9298d281aa9a1689362fe8c114d28d9683db66af8a6b1a05fb5d19402ffdd47e1f3b408800c5efbd6d948a21cf347551466814bb1266c4df1ee89691817e1b manifest-sha512.txt
