cf83e1357eefb8bdf1542850d66d8007d620e4050b5715dc83f4a921d36ce9ce47d0d13c5d85f2b0ff8318d2877eec2f63b931bd47417a81a538327af927da3e  data/sample doc.txt
26dd844ba5e185b55879c4c15d65b62e4a5d0f683e24ea91b239dc263b9ab9a06e63245b205acd7a9e0d5dbf75db2476494eeed19004c9405a7cea4901f25912  data/test document iwth ünicode ☮ ☺ characters .docx
16f1647b22ca8679352e232c7dcbcdcba224c9b045c70e572bf061b2996f251cbd65a152557409f17be9417b23460adebe5de08d2dea30d13a64e22f6607206b  data/subfolder/nothing.rtf
