5a128e797897ec4ac48f4cd68130c5d40f1c91d258b3f993298d04bc596020fd07f52a369e4413fb55c7c8559be4aa53d62d2f7ce932c45b10817e9a4f46578c  data/New Microsoft Word Document.docx
cf83e1357eefb8bdf1542850d66d8007d620e4050b5715dc83f4a921d36ce9ce47d0d13c5d85f2b0ff8318d2877eec2f63b931bd47417a81a538327af927da3e  data/blank.bmp
3fe3a9be89db7710d5ec2744b59332afd793fe2ce3805cc2608b0097eecb459d260f3552f83d33df71d4e44745001c6950f7654e99626605a2e5eeddd0644efc  data/sample.txt
