e3b0c44298fc1c149afbf4c8996fb92427ae41e4649b934ca495991b7852b855  data/Thumbs.db
e3b0c44298fc1c149afbf4c8996fb92427ae41e4649b934ca495991b7852b855  data/sample doc.txt
0d6afb7e939f0936f40afdc759b5a354ea5427ec250a47e7b904ab1ea800a01d  data/subfolder/nothing.rtf
