391513569a024bddd003b5cbb3424e9e0f0985b337763c1ca43dc4f3892ccda16e7696d676a4cb63c0319b8a033a6c99265b4c1453f3ff56550ea0070644c1a3 bag-info.txt
418dcfbe17d5f4b454b18630be795462cf7da4ceb6313afa49451aa2568e41f7ca3d34cf0280c7d056dc5681a70c37586aa1755620520b9198eede905ba2d0f6 bagit.txt
7335b0567db7e63b6a1d3e9ebcd6fc1eb7ed13867776f7d7bbf8b4623f6af499d0c98368e059330cd4b8b0eb63023ba785b24e30ce1dab0f61995b4849b0b0ef manifest-sha256.txt
5ff0b514d73b78c40fcc93bf037d24165ce70c23e99b124c2b209eb6505f59d40979a17dcb21e42d275c3867d09e8158ad391160bfebb676089679d2b63351fa manifest-sha512.txt
