0c3a06a128335fd9f09a4757a8ac72fcacfd09146452c1b1573cd5a07e31e2b5c03456acda6d51b0cc7876f7c00d6d55b24aebf6835a3bd89a6bba1a123a9260 bag-info.txt
418dcfbe17d5f4b454b18630be795462cf7da4ceb6313afa49451aa2568e41f7ca3d34cf0280c7d056dc5681a70c37586aa1755620520b9198eede905ba2d0f6 bagit.txt
50719121171bdb9886d70d20ef04587f33da76267cd2e8f61933b8ca4f3a1e8403be6a342096adee9f3d0ca0b73658cf2909c9a48ddfc1fa3d4283dc1581a057 manifest-sha256.txt
d02cfb8daac36648d8519c8121eb624643d4b70fe13bf85b1b6eae8a9bf0e2065f4dedd0e6cf93471c0b019421f5903109b87d6859130126c1a83aa9d6938306 manifest-sha512.txt
