cf83e1357eefb8bdf1542850d66d8007d620e4050b5715dc83f4a921d36ce9ce47d0d13c5d85f2b0ff8318d2877eec2f63b931bd47417a81a538327af927da3e  data/file1.txt
cf83e1357eefb8bdf1542850d66d8007d620e4050b5715dc83f4a921d36ce9ce47d0d13c5d85f2b0ff8318d2877eec2f63b931bd47417a81a538327af927da3e  data/file2.docx
cf83e1357eefb8bdf1542850d66d8007d620e4050b5715dc83f4a921d36ce9ce47d0d13c5d85f2b0ff8318d2877eec2f63b931bd47417a81a538327af927da3e  data/file3.pptx
70925ea9b0d92a26a18f6793838df8a89fb156f113d74402b7e8a070b991bb8d7743669a63373f0383c21310c5f837f8de3367b465619263705833651b2e8d8e  data/file4.xlsx
